{
    "swimming": {
		"freestyle": {
			"60": 502,
			"70": 599,
			"80": 659,
			"90": 791
		},
		"backstroke": {
			"60": 590,
			"70": 704,
			"80": 817,
			"90": 931
		},
		"butterfly": {
			"60": 649,
			"70": 774,
			"80": 899,
			"90": 1024
		}
    }
}